…
### Задание 9

#### 9. Часто вредоносное программное обеспечение использует DNS канал в качестве канала управления, периодически отправляя запросы на подконтрольный злоумышленникам DNS сервер. По периодическим запросам на один и тот же домен можно выявить скрытый DNS канал. Есть ли такие IP адреса в исследуемом датасете?

    point_9s<-log_data[,c("orig_ip ","query ")]
    point_8<-point_9s
    point_8%>%group_by(point_8$`query `)

    ## # A tibble: 427,935 × 3
    ## # Groups:   point_8$`query ` [5,178]
    ##    `orig_ip `      `query `                                              point…¹
    ##    <chr>           <chr>                                                 <chr>  
    ##  1 192.168.202.100 "*\\x00\\x00\\x00\\x00\\x00\\x00\\x00\\x00\\x00\\x00… "*\\x0…
    ##  2 192.168.202.76  "HPE8AA67"                                            "HPE8A…
    ##  3 192.168.202.76  "HPE8AA67"                                            "HPE8A…
    ##  4 192.168.202.76  "HPE8AA67"                                            "HPE8A…
    ##  5 192.168.202.76  "WPAD"                                                "WPAD" 
    ##  6 192.168.202.76  "WPAD"                                                "WPAD" 
    ##  7 192.168.202.76  "WPAD"                                                "WPAD" 
    ##  8 192.168.202.89  "EWREP1"                                              "EWREP…
    ##  9 192.168.202.89  "EWREP1"                                              "EWREP…
    ## 10 192.168.202.89  "EWREP1"                                              "EWREP…
    ## # … with 427,925 more rows, and abbreviated variable name ¹​`point_8$\`query \``
…
